Practical Guide for Statistical Consulting - 2 Data Quality Analysis
…
2.9.2 drone::worldbankdata

# install.packages("devtools")
devtools::install_github("thiyangt/drone")

library(tibble)
library(drone)
data("worldbankdata")
worldbankdata

# A tibble: 7,937 × 7
   Country Code  Region                     Year Cooking Electricity Income
   <fct>   <fct> <fct>                     <dbl>   <dbl>       <dbl> <fct> 
 1 Aruba   ABW   Latin America & Caribbean  1990      NA       100   H     
 2 Aruba   ABW   Latin America & Caribbean  2000      NA        91.7 H     
 3 Aruba   ABW   Latin America & Caribbean  2013      NA       100   H     
 4 Aruba   ABW   Latin America & Caribbean  2014      NA       100   H     
 5 Aruba   ABW   Latin America & Caribbean  2015      NA       100   H     
 6 Aruba   ABW   Latin America & Caribbean  2016      NA       100   H     
 7 Aruba   ABW   Latin America & Caribbean  2017      NA       100   H     
 8 Aruba   ABW   Latin America & Caribbean  2018      NA       100   H     
 9 Aruba   ABW   Latin America & Caribbean  2019      NA       100   H     
10 Aruba   ABW   Latin America & Caribbean  2020      NA       100   H     
# ℹ 7,927 more rows
…
